Plots
…
set.seed(1) #set fixed random samples

noaa_dfc = 
  ny_noaa %>%
  sample_n(10000) %>%
  separate(col = date, into = c("year","month", "day")) %>%
  mutate(across(.cols = c(year, month, day), as.integer)) %>%
  mutate(month = month.name[month]) %>%
  mutate(prcp = prcp/10, 
         tmax = as.numeric(tmax)/10,
         tmin = as.numeric(tmin)/10) 
noaa_dfc

## # A tibble: 10,000 × 9
##    id           year month      day  prcp  snow  snwd  tmax  tmin
##    <chr>       <int> <chr>    <int> <dbl> <int> <int> <dbl> <dbl>
##  1 USW00094740  2002 August       3   0.3    NA    NA  27.8  12.2
##  2 USC00309189  1986 January      2   0       0   406   4.4  -3.3
##  3 USC00305714  1982 August      16   0       0     0  NA    NA  
##  4 USC00302169  2010 August      28  NA      NA    NA  22.2   8.3
##  5 USC00308932  2003 February     1   3      38   356   2.2 -16.7
##  6 USC00304996  1987 November    15   0       0     0   6.1  -3.9
##  7 USC00301401  1996 January     28   0       0     0   0.6 -12.2
##  8 USC00300889  2003 March       22   5.1     0     0  17.8   6.7
##  9 USC00304912  1995 January     10   1.3    38   356  -6.1 -22.2
## 10 USW00014717  1983 May         10   0.5     0     0   8.3   3.3
## # … with 9,990 more rows
…
